Linked: (/catkin_ws/devel/.private/hector_quadrotor_gazebo/lib/pkgconfig/hector_quadrotor_gazebo.pc, /catkin_ws/devel/lib/pkgconfig/hector_quadrotor_gazebo.pc)
Linked: (/catkin_ws/devel/.private/hector_quadrotor_gazebo/share/hector_quadrotor_gazebo/cmake/hector_quadrotor_gazeboConfig-version.cmake, /catkin_ws/devel/share/hector_quadrotor_gazebo/cmake/hector_quadrotor_gazeboConfig-version.cmake)
Linked: (/catkin_ws/devel/.private/hector_quadrotor_gazebo/share/hector_quadrotor_gazebo/cmake/hector_quadrotor_gazeboConfig.cmake, /catkin_ws/devel/share/hector_quadrotor_gazebo/cmake/hector_quadrotor_gazeboConfig.cmake)
